<!-- Generator: Adobe Illustrator 22.0.1, SVG Export Plug-In  -->
<svg version="1.1"
	 xmlns="http://www.w3.org/2000/svg" xmlns:xlink="http://www.w3.org/1999/xlink" xmlns:a="http://ns.adobe.com/AdobeSVGViewerExtensions/3.0/"
	 x="0px" y="0px" width="25.5px" height="34px" viewBox="0 0 25.5 34" style="enable-background:new 0 0 25.5 34;"
	 xml:space="preserve">
<style type="text/css">
	.st0{fill:#E3132C;}
	.st1{fill:#EB2927;}
</style>
<defs>
</defs>
<g id="Page-1_1_">
	<g id="Claro-Shop---Detalle-producto-CyR_1_" transform="translate(-1310.000000, -562.000000)">
		<g id="Group-27_1_" transform="translate(1139.000000, 552.000000)">
			<g id="Pin-click_1_" transform="translate(171.000000, 10.000000)">
				<path id="Combined-Shape_1_" class="st0" d="M1.4,22C0.5,20.8,0,19.3,0,17.8c0-4.1,3.3-7.3,7.5-7.3s7.5,3.3,7.5,7.3
					c0,1.6-0.5,3-1.4,4.2L7.5,34L1.4,22z M7.3,22c2.5,0,4.5-2,4.5-4.4s-2-4.4-4.5-4.4s-4.5,2-4.5,4.4S4.8,22,7.3,22z"/>
				<path id="Fill-20_1_" class="st1" d="M15.8,11.6c-0.7-0.7-1.3-1.4-2-2c2.6-2.6,5.1-5.3,7.7-7.9c0.7,0.7,1.3,1.3,2,2
					C20.9,6.3,18.4,8.9,15.8,11.6"/>
				<path id="Fill-21_1_" class="st1" d="M25.5,18.2h-8.4c0-0.7,0-1.4,0-2.1c0-0.7,0-0.7,0.7-0.7c2.4,0,4.8,0,7.2,0
					c0.3,0,0.5,0.1,0.4,0.4c0,0.7,0,1.3,0,2C25.5,17.9,25.5,18,25.5,18.2"/>
				<polygon id="Fill-22_1_" class="st1" points="7.2,8.4 9.9,8.4 9.9,0 7.2,0 				"/>
			</g>
		</g>
	</g>
</g>
</svg>