<?xml version="1.0" encoding="utf-8"?>
<!-- Generator: Adobe Illustrator 16.0.0, SVG Export Plug-In . SVG Version: 6.00 Build 0)  -->
<!DOCTYPE svg PUBLIC "-//W3C//DTD SVG 1.1//EN" "http://www.w3.org/Graphics/SVG/1.1/DTD/svg11.dtd">
<svg version="1.1" id="Capa_1" xmlns="http://www.w3.org/2000/svg" xmlns:xlink="http://www.w3.org/1999/xlink" x="0px" y="0px"
	 width="19.25px" height="19.254px" viewBox="40.494 -5.246 19.25 19.254" enable-background="new 40.494 -5.246 19.25 19.254"
	 xml:space="preserve">
<g>
	<g>
		<g>
			<g>
				<g>
					<g>
						
							<radialGradient id="SVGID_2_" cx="190.238" cy="-133.5684" r="20.926" gradientTransform="matrix(1 0 0 -1 -146 -134.9922)" gradientUnits="userSpaceOnUse">
							<stop  offset="0" style="stop-color:#97D5F6"/>
							<stop  offset="0.0483" style="stop-color:#91D3F5"/>
							<stop  offset="0.1127" style="stop-color:#80CDF3"/>
							<stop  offset="0.1861" style="stop-color:#64C4EF"/>
							<stop  offset="0.2661" style="stop-color:#3EB7EA"/>
							<stop  offset="0.3508" style="stop-color:#0DA7E3"/>
							<stop  offset="0.3708" style="stop-color:#00A3E1"/>
							<stop  offset="0.4422" style="stop-color:#0099D9"/>
							<stop  offset="0.6173" style="stop-color:#0087CA"/>
							<stop  offset="0.7999" style="stop-color:#007CC1"/>
							<stop  offset="1" style="stop-color:#0078BE"/>
						</radialGradient>
						<path id="SVGID_1_" fill="url(#SVGID_2_)" d="M58.842-4.464H41.291v17.613h17.551V7.337c0.07-0.102,0.105-0.23,0.105-0.389
							c0-0.18-0.035-0.291-0.105-0.385V-4.464z"/>
					</g>
				</g>
			</g>
		</g>
	</g>
	<g>
		<path fill="#FFFFFF" d="M41.291,4.454h0.844l0.189-0.46h0.426l0.189,0.46h1.658V4.103l0.148,0.353h0.859l0.146-0.356v0.355h4.123
			l-0.002-0.752h0.08c0.055,0,0.07,0.007,0.07,0.1v0.652h2.133V4.278c0.172,0.093,0.439,0.176,0.791,0.176h0.896l0.191-0.46h0.426
			l0.188,0.46h1.729V4.017l0.262,0.438h1.385V1.575h-1.369v0.341l-0.191-0.341h-1.406v0.341l-0.176-0.341h-1.9
			c-0.316,0-0.598,0.044-0.822,0.168V1.575h-1.311v0.168c-0.146-0.128-0.342-0.168-0.559-0.168H45.5l-0.322,0.742l-0.328-0.742
			h-1.508v0.341l-0.168-0.341h-1.285l-0.598,1.367V4.454L41.291,4.454z M57.586,4.048h-0.699l-0.936-1.549l0.002,1.549h-1.006
			l-0.191-0.462H53.73l-0.186,0.462h-0.578c-0.24,0-0.543-0.055-0.715-0.229c-0.174-0.178-0.264-0.413-0.264-0.789
			c0-0.307,0.055-0.585,0.266-0.807c0.16-0.166,0.41-0.242,0.75-0.242h0.477v0.443h-0.467c-0.18,0-0.283,0.026-0.381,0.122
			c-0.082,0.087-0.141,0.251-0.141,0.468c0,0.223,0.043,0.381,0.137,0.484c0.074,0.081,0.213,0.105,0.342,0.105h0.223l0.695-1.623
			h0.738l0.836,1.951V1.983h0.752l0.867,1.438V1.983h0.504V4.048z M51.748,4.048h-0.504V1.983h0.504V4.048z M50.957,2.54
			c0,0.327-0.219,0.499-0.346,0.551c0.105,0.041,0.197,0.111,0.24,0.174c0.07,0.101,0.084,0.194,0.084,0.377v0.406h-0.498
			l-0.002-0.261c0-0.123,0.014-0.304-0.08-0.399c-0.07-0.074-0.18-0.09-0.357-0.09h-0.529v0.75h-0.492V1.983h1.135
			c0.252,0,0.438,0.009,0.598,0.101C50.865,2.175,50.957,2.31,50.957,2.54z M48.633,4.048h-1.646V1.983h1.646v0.432h-1.154v0.371
			h1.125V3.21l-1.125-0.002V3.62h1.154V4.048z M46.619,4.048h-0.506l-0.002-1.615l-0.717,1.615h-0.432l-0.719-1.619v1.619H43.24
			l-0.189-0.462h-1.027l-0.189,0.462h-0.535l0.881-2.064h0.734l0.838,1.955V1.983h0.807l0.646,1.4l0.594-1.4h0.82V4.048
			L46.619,4.048z M54.588,3.157l-0.342-0.821l-0.34,0.821H54.588z M50.31,2.831c-0.066,0.038-0.146,0.042-0.244,0.042h-0.6V2.414
			h0.607c0.088,0,0.178,0.003,0.234,0.035c0.064,0.032,0.104,0.096,0.104,0.183C50.414,2.724,50.375,2.794,50.31,2.831z
			 M42.875,3.157l-0.338-0.821l-0.336,0.821H42.875z"/>
		<path fill="#FFFFFF" d="M50.851,6.216c0,0.573-0.426,0.692-0.857,0.692h-0.615V7.6h-0.957l-0.609-0.684L47.181,7.6h-1.953V5.535
			h1.984l0.605,0.677l0.629-0.677h1.574C50.414,5.536,50.851,5.646,50.851,6.216z M46.931,7.169h-1.213v-0.41h1.082V6.338h-1.082
			V5.963h1.236l0.539,0.601L46.931,7.169z M48.886,7.414l-0.758-0.842l0.758-0.812V7.414z M50.015,6.488h-0.639V5.963h0.645
			c0.18,0,0.303,0.072,0.303,0.253C50.324,6.396,50.207,6.488,50.015,6.488z M53.344,5.536h1.646v0.428h-1.154v0.375h1.127v0.422
			h-1.127v0.408l1.154,0.004v0.428h-1.646V5.536z M52.72,6.642c0.109,0.04,0.199,0.112,0.24,0.174c0.07,0.1,0.082,0.193,0.082,0.377
			v0.409h-0.494v-0.26c0-0.123,0.012-0.307-0.08-0.402c-0.072-0.076-0.182-0.092-0.361-0.092H51.58v0.754h-0.494V5.536h1.139
			c0.25,0,0.434,0.012,0.594,0.1c0.154,0.092,0.254,0.223,0.254,0.457C53.07,6.421,52.849,6.589,52.72,6.642z M52.422,6.386
			c-0.064,0.037-0.146,0.041-0.242,0.041h-0.6V5.963h0.607c0.086,0,0.176,0.003,0.234,0.036c0.062,0.035,0.102,0.098,0.102,0.188
			C52.523,6.274,52.486,6.345,52.422,6.386z M56.875,6.511c0.098,0.101,0.146,0.227,0.146,0.438c0,0.445-0.277,0.653-0.773,0.653
			h-0.961V7.158h0.957c0.094,0,0.16-0.012,0.201-0.051c0.033-0.031,0.059-0.076,0.059-0.135c0-0.061-0.025-0.109-0.062-0.137
			c-0.035-0.031-0.088-0.047-0.174-0.047c-0.461-0.016-1.039,0.016-1.039-0.639c0-0.299,0.188-0.614,0.705-0.614h0.988v0.438h-0.904
			c-0.09,0-0.148,0.004-0.199,0.037c-0.053,0.033-0.072,0.084-0.072,0.149c0,0.077,0.047,0.131,0.107,0.153
			c0.053,0.019,0.107,0.022,0.191,0.023l0.266,0.006C56.58,6.353,56.761,6.399,56.875,6.511z M58.842,7.335
			c-0.121,0.178-0.354,0.266-0.67,0.266h-0.953V7.158h0.949c0.094,0,0.16-0.012,0.199-0.051c0.033-0.031,0.061-0.076,0.061-0.135
			c0-0.061-0.025-0.109-0.061-0.137c-0.037-0.031-0.09-0.047-0.176-0.047c-0.463-0.016-1.041,0.016-1.041-0.639
			c0-0.299,0.191-0.614,0.707-0.614h0.984v-0.41h-0.914c-0.275,0-0.477,0.065-0.617,0.169V5.125h-1.352
			c-0.215,0-0.467,0.054-0.588,0.169V5.125h-2.412v0.169c-0.191-0.138-0.516-0.169-0.666-0.169h-1.59v0.169
			c-0.152-0.146-0.488-0.169-0.695-0.169h-1.779l-0.406,0.44l-0.383-0.44h-2.658v2.883h2.607l0.42-0.449l0.396,0.449h1.605V7.33
			h0.16c0.211,0.002,0.465-0.006,0.688-0.102v0.778h1.326V7.253h0.062c0.082,0,0.09,0.006,0.09,0.084v0.668h4.031
			c0.254,0,0.521-0.064,0.67-0.186v0.186h1.279c0.266,0,0.523-0.037,0.723-0.133V7.335H58.842z M58.842,5.976h-0.9
			c-0.09,0-0.148,0.004-0.197,0.037c-0.053,0.032-0.072,0.084-0.072,0.148c0,0.077,0.043,0.131,0.109,0.152
			c0.051,0.02,0.105,0.023,0.189,0.024l0.266,0.007c0.27,0.008,0.449,0.053,0.561,0.166c0.02,0.016,0.033,0.034,0.047,0.051V5.976
			H58.842z"/>
	</g>
</g>
<g>
	<path fill="#00A3E1" d="M50.957,2.36c0,0.328-0.219,0.499-0.346,0.551c0.107,0.041,0.197,0.112,0.24,0.174
		c0.07,0.102,0.084,0.194,0.084,0.377v0.406h-0.498l-0.002-0.26c0-0.124,0.014-0.305-0.078-0.4c-0.072-0.074-0.182-0.09-0.359-0.09
		h-0.529v0.75h-0.492V1.803h1.137c0.25,0,0.438,0.009,0.596,0.101C50.865,1.995,50.957,2.129,50.957,2.36z"/>
	<polygon fill="#11ADE5" points="48.633,3.868 46.986,3.868 46.986,1.803 48.633,1.803 48.633,2.234 47.478,2.234 47.478,2.606 
		48.603,2.606 48.603,3.029 47.478,3.028 47.478,3.441 48.633,3.441 	"/>
	<polygon fill="#58BAEA" points="46.619,3.868 46.113,3.868 46.111,2.252 45.394,3.868 44.963,3.868 44.244,2.25 44.244,3.868 
		43.242,3.868 43.051,3.407 42.023,3.407 41.834,3.868 41.297,3.868 42.179,1.803 42.914,1.803 43.752,3.758 43.752,1.803 
		44.558,1.803 45.203,3.206 45.797,1.803 46.619,1.803 	"/>
	<path fill="#FFFFFF" d="M50.31,2.651c-0.064,0.039-0.146,0.042-0.242,0.042h-0.602V2.234h0.607c0.088,0,0.178,0.003,0.234,0.036
		c0.064,0.031,0.105,0.095,0.105,0.184C50.414,2.543,50.375,2.615,50.31,2.651z"/>
	<polygon fill="#FFFFFF" points="42.875,2.978 42.537,2.155 42.201,2.978 	"/>
</g>
</svg>
