<?xml version="1.0" encoding="utf-8"?>
<!-- Generator: Adobe Illustrator 16.0.0, SVG Export Plug-In . SVG Version: 6.00 Build 0)  -->
<!DOCTYPE svg PUBLIC "-//W3C//DTD SVG 1.1//EN" "http://www.w3.org/Graphics/SVG/1.1/DTD/svg11.dtd">
<svg version="1.1" id="Capa_1" xmlns="http://www.w3.org/2000/svg" xmlns:xlink="http://www.w3.org/1999/xlink" x="0px" y="0px"
	 width="145.333px" height="31.167px" viewBox="0 0 145.333 31.167" enable-background="new 0 0 145.333 31.167"
	 xml:space="preserve">
<g>
	<path fill="#1D1D1B" d="M70.664,22.72c-0.066-0.066-0.146-0.118-0.236-0.155c-0.092-0.036-0.191-0.056-0.299-0.056
		c-0.057,0-0.117,0.006-0.178,0.016c-0.062,0.01-0.123,0.027-0.182,0.053c-0.061,0.024-0.115,0.061-0.169,0.104
		s-0.101,0.101-0.14,0.166c-0.063-0.104-0.15-0.188-0.258-0.247c-0.109-0.061-0.233-0.09-0.375-0.09
		c-0.047,0-0.095,0.005-0.146,0.013c-0.05,0.009-0.101,0.022-0.149,0.044c-0.051,0.021-0.098,0.051-0.143,0.087
		c-0.045,0.035-0.086,0.081-0.123,0.138v-0.23h-0.396v1.889h0.4v-1.047c0-0.08,0.014-0.152,0.038-0.214s0.06-0.114,0.103-0.157
		c0.043-0.041,0.092-0.074,0.149-0.096s0.119-0.032,0.183-0.032c0.135,0,0.24,0.042,0.314,0.128
		c0.075,0.086,0.111,0.209,0.111,0.367v1.051h0.402v-1.047c0-0.08,0.012-0.152,0.037-0.214s0.061-0.114,0.102-0.157
		c0.043-0.041,0.093-0.074,0.15-0.096c0.057-0.021,0.118-0.032,0.184-0.032c0.135,0,0.24,0.042,0.313,0.128
		c0.075,0.086,0.112,0.209,0.112,0.367v1.051h0.4v-1.188c0-0.11-0.019-0.211-0.055-0.305C70.781,22.865,70.729,22.787,70.664,22.72"
		/>
	<path fill="#1D1D1B" d="M72.777,22.789c-0.066-0.084-0.148-0.151-0.244-0.203c-0.098-0.051-0.215-0.076-0.35-0.076
		c-0.132,0-0.256,0.025-0.371,0.074c-0.113,0.049-0.214,0.119-0.3,0.207c-0.085,0.088-0.152,0.191-0.201,0.313
		c-0.048,0.121-0.073,0.255-0.073,0.399c0,0.144,0.024,0.276,0.073,0.398c0.049,0.121,0.116,0.227,0.201,0.314
		s0.187,0.156,0.3,0.205c0.114,0.05,0.238,0.074,0.371,0.074c0.135,0,0.252-0.024,0.35-0.076c0.096-0.049,0.178-0.115,0.244-0.201
		v0.229h0.412v-1.889h-0.412V22.789z M72.761,23.744c-0.028,0.073-0.066,0.139-0.117,0.191c-0.05,0.054-0.109,0.096-0.18,0.127
		c-0.069,0.031-0.147,0.047-0.232,0.047c-0.09,0-0.169-0.018-0.24-0.049c-0.07-0.032-0.129-0.075-0.179-0.13
		c-0.049-0.056-0.086-0.119-0.112-0.192c-0.025-0.072-0.039-0.15-0.039-0.234c0-0.082,0.013-0.16,0.039-0.234
		c0.026-0.073,0.063-0.139,0.112-0.191c0.05-0.055,0.108-0.099,0.179-0.131c0.07-0.031,0.15-0.048,0.24-0.048
		c0.085,0,0.163,0.017,0.232,0.046c0.07,0.031,0.13,0.073,0.18,0.127c0.051,0.055,0.089,0.118,0.117,0.191
		c0.027,0.074,0.041,0.154,0.041,0.24S72.789,23.671,72.761,23.744"/>
	<path fill="#1D1D1B" d="M75.083,23.501c-0.116-0.092-0.277-0.15-0.484-0.182l-0.193-0.029c-0.045-0.006-0.086-0.015-0.123-0.022
		c-0.039-0.009-0.072-0.021-0.1-0.034s-0.049-0.033-0.064-0.055c-0.018-0.021-0.024-0.051-0.024-0.083
		c0-0.067,0.03-0.121,0.094-0.163c0.062-0.041,0.149-0.062,0.263-0.062c0.061,0,0.118,0.006,0.176,0.018
		c0.057,0.011,0.111,0.023,0.162,0.039s0.098,0.033,0.141,0.053c0.042,0.02,0.076,0.037,0.105,0.055l0.178-0.322
		c-0.098-0.062-0.213-0.111-0.346-0.146c-0.132-0.033-0.271-0.052-0.42-0.052c-0.119,0-0.229,0.014-0.324,0.043
		c-0.097,0.026-0.178,0.067-0.246,0.12c-0.067,0.052-0.119,0.113-0.155,0.189c-0.036,0.074-0.054,0.158-0.054,0.252
		c0,0.152,0.054,0.275,0.162,0.37c0.107,0.095,0.268,0.155,0.479,0.185l0.197,0.025c0.113,0.016,0.195,0.04,0.248,0.075
		s0.078,0.079,0.078,0.134c0,0.07-0.035,0.127-0.107,0.168s-0.18,0.062-0.322,0.062c-0.076,0-0.146-0.006-0.207-0.016
		c-0.062-0.012-0.117-0.025-0.168-0.043c-0.051-0.019-0.096-0.037-0.137-0.062c-0.039-0.022-0.076-0.048-0.111-0.074l-0.191,0.31
		c0.068,0.053,0.142,0.094,0.217,0.125c0.074,0.031,0.148,0.057,0.221,0.074c0.073,0.016,0.141,0.028,0.205,0.034
		c0.064,0.007,0.121,0.009,0.169,0.009c0.136,0,0.259-0.015,0.364-0.045c0.107-0.029,0.197-0.072,0.271-0.127
		c0.071-0.055,0.129-0.119,0.168-0.195c0.037-0.076,0.058-0.158,0.058-0.25C75.255,23.716,75.199,23.591,75.083,23.501"/>
	<path fill="#1D1D1B" d="M78.941,22.785c-0.076-0.088-0.172-0.154-0.281-0.203c-0.108-0.047-0.229-0.072-0.36-0.072
		c-0.14,0-0.269,0.025-0.384,0.072c-0.113,0.049-0.213,0.115-0.295,0.203c-0.084,0.088-0.147,0.192-0.193,0.314
		c-0.047,0.122-0.069,0.257-0.069,0.404c0,0.148,0.022,0.285,0.071,0.408c0.048,0.121,0.113,0.227,0.199,0.312
		c0.084,0.086,0.187,0.152,0.306,0.201c0.118,0.047,0.248,0.07,0.392,0.07c0.143,0,0.278-0.021,0.407-0.06
		c0.13-0.04,0.253-0.108,0.368-0.207l-0.204-0.294c-0.08,0.062-0.166,0.111-0.262,0.146c-0.097,0.035-0.19,0.053-0.285,0.053
		c-0.065,0-0.132-0.01-0.192-0.027c-0.062-0.02-0.117-0.047-0.168-0.086c-0.05-0.039-0.093-0.089-0.129-0.148
		c-0.035-0.062-0.06-0.134-0.072-0.22h1.396c0.003-0.022,0.005-0.049,0.006-0.073c0.002-0.027,0.002-0.054,0.002-0.08
		c0-0.146-0.021-0.281-0.065-0.402C79.08,22.977,79.019,22.873,78.941,22.785 M77.789,23.341c0.012-0.067,0.028-0.131,0.056-0.188
		c0.026-0.057,0.06-0.105,0.103-0.146c0.041-0.043,0.09-0.073,0.146-0.096c0.058-0.022,0.123-0.033,0.197-0.033
		c0.131,0,0.238,0.039,0.319,0.121c0.084,0.082,0.136,0.196,0.158,0.344h-0.979V23.341z"/>
	<path fill="#1D1D1B" d="M84.416,22.789c-0.064-0.084-0.146-0.151-0.244-0.203c-0.098-0.051-0.213-0.076-0.35-0.076
		c-0.133,0-0.256,0.025-0.369,0.074c-0.115,0.049-0.215,0.119-0.301,0.207S83,22.982,82.951,23.104
		c-0.049,0.121-0.072,0.255-0.072,0.399c0,0.144,0.023,0.276,0.072,0.398c0.049,0.121,0.115,0.227,0.201,0.314
		s0.186,0.156,0.301,0.205c0.113,0.05,0.236,0.074,0.369,0.074c0.137,0,0.252-0.024,0.35-0.076c0.099-0.049,0.18-0.115,0.244-0.201
		v0.229h0.412v-1.889h-0.412V22.789z M84.401,23.744c-0.026,0.073-0.065,0.139-0.116,0.191c-0.05,0.053-0.109,0.096-0.179,0.127
		s-0.147,0.047-0.233,0.047c-0.088,0-0.168-0.018-0.238-0.049c-0.07-0.032-0.131-0.075-0.178-0.13
		c-0.051-0.056-0.088-0.119-0.113-0.192c-0.026-0.072-0.039-0.15-0.039-0.234c0-0.082,0.013-0.16,0.039-0.234
		c0.025-0.073,0.062-0.139,0.113-0.191c0.047-0.055,0.106-0.099,0.178-0.131c0.07-0.031,0.15-0.048,0.238-0.048
		c0.086,0,0.164,0.017,0.233,0.046c0.068,0.031,0.129,0.073,0.179,0.127c0.051,0.055,0.09,0.118,0.116,0.191
		c0.027,0.074,0.041,0.154,0.041,0.24S84.428,23.671,84.401,23.744"/>
	<path fill="#1D1D1B" d="M76.849,24.071c-0.064,0.025-0.131,0.038-0.195,0.038c-0.041,0-0.08-0.007-0.117-0.021
		c-0.035-0.012-0.067-0.032-0.096-0.062c-0.025-0.028-0.047-0.063-0.062-0.11c-0.016-0.043-0.023-0.098-0.023-0.16v-0.821h0.662
		V22.56h-0.662v-0.572h-0.414v0.572h-0.376v0.374h0.376v0.83c0,0.251,0.061,0.437,0.18,0.555c0.119,0.119,0.285,0.179,0.5,0.179
		c0.119,0,0.227-0.019,0.321-0.055c0.062-0.023,0.121-0.053,0.177-0.083l-0.142-0.345C76.936,24.035,76.894,24.055,76.849,24.071"/>
	<path fill="#1D1D1B" d="M80.57,22.509c-0.115,0-0.22,0.021-0.312,0.064c-0.094,0.041-0.172,0.143-0.234,0.232v-0.247h-0.375v1.89
		h0.379V23.41c0-0.08,0.012-0.152,0.033-0.217c0.021-0.062,0.055-0.115,0.094-0.158c0.039-0.045,0.086-0.076,0.141-0.1
		c0.056-0.021,0.115-0.033,0.183-0.033c0.05,0,0.104,0.006,0.162,0.018c0.028,0.006,0.058,0.015,0.083,0.022l0.121-0.396
		c-0.033-0.01-0.066-0.02-0.102-0.024C80.691,22.515,80.634,22.509,80.57,22.509"/>
	<path fill="#1D1D1B" d="M86.299,22.509c-0.115,0-0.22,0.021-0.313,0.064c-0.093,0.041-0.171,0.143-0.234,0.232v-0.247h-0.373v1.89
		h0.377V23.41c0-0.08,0.013-0.152,0.035-0.217c0.021-0.062,0.053-0.115,0.092-0.158c0.039-0.045,0.088-0.076,0.143-0.1
		c0.055-0.021,0.115-0.033,0.182-0.033c0.051,0,0.104,0.006,0.162,0.018c0.029,0.006,0.058,0.015,0.082,0.022l0.121-0.396
		c-0.031-0.01-0.066-0.02-0.101-0.024C86.419,22.515,86.363,22.509,86.299,22.509"/>
	<path fill="#1D1D1B" d="M88.225,21.791v0.998c-0.065-0.084-0.147-0.151-0.245-0.203c-0.097-0.051-0.214-0.076-0.35-0.076
		c-0.133,0-0.256,0.025-0.37,0.074s-0.216,0.119-0.3,0.207c-0.086,0.088-0.152,0.191-0.2,0.313c-0.05,0.121-0.074,0.255-0.074,0.399
		c0,0.144,0.024,0.276,0.074,0.398c0.048,0.121,0.114,0.227,0.2,0.314c0.084,0.088,0.186,0.156,0.3,0.205
		c0.114,0.05,0.237,0.074,0.37,0.074c0.136,0,0.253-0.024,0.35-0.076c0.098-0.049,0.18-0.115,0.245-0.201v0.229h0.412v-2.656H88.225
		L88.225,21.791z M88.208,23.744c-0.027,0.073-0.065,0.139-0.116,0.191c-0.05,0.054-0.109,0.096-0.181,0.127
		c-0.067,0.031-0.146,0.047-0.231,0.047c-0.091,0-0.169-0.018-0.239-0.049c-0.07-0.032-0.13-0.075-0.179-0.13
		c-0.05-0.056-0.086-0.119-0.112-0.192c-0.025-0.072-0.04-0.15-0.04-0.234c0-0.082,0.015-0.16,0.04-0.234
		c0.026-0.073,0.062-0.139,0.112-0.191c0.049-0.055,0.106-0.099,0.179-0.131c0.07-0.031,0.148-0.048,0.239-0.048
		c0.086,0,0.164,0.017,0.231,0.046c0.07,0.031,0.131,0.073,0.181,0.127c0.051,0.055,0.089,0.118,0.116,0.191
		c0.027,0.074,0.041,0.154,0.041,0.24S88.236,23.671,88.208,23.744"/>
	<path fill="#1D1D1B" d="M81.557,23.066c0.053-0.053,0.114-0.095,0.188-0.124c0.072-0.028,0.149-0.044,0.233-0.044
		c0.093,0,0.179,0.016,0.259,0.044c0.076,0.028,0.143,0.067,0.199,0.119l0.198-0.329c-0.074-0.061-0.158-0.107-0.251-0.146
		c-0.124-0.051-0.26-0.076-0.405-0.076s-0.28,0.025-0.405,0.076c-0.123,0.052-0.23,0.121-0.32,0.209
		c-0.09,0.09-0.161,0.193-0.213,0.314c-0.051,0.121-0.076,0.252-0.076,0.395s0.025,0.272,0.076,0.395
		c0.052,0.121,0.123,0.227,0.213,0.314s0.197,0.158,0.32,0.209c0.125,0.051,0.26,0.076,0.405,0.076s0.281-0.025,0.405-0.076
		c0.093-0.037,0.177-0.086,0.251-0.146l-0.198-0.33c-0.057,0.051-0.123,0.092-0.199,0.119c-0.08,0.029-0.166,0.045-0.259,0.045
		c-0.084,0-0.162-0.016-0.233-0.045c-0.072-0.029-0.136-0.07-0.188-0.124c-0.054-0.054-0.095-0.117-0.125-0.19
		c-0.028-0.074-0.045-0.156-0.045-0.246s0.017-0.172,0.045-0.246C81.462,23.184,81.503,23.121,81.557,23.066"/>
	<path fill="#1D1D1B" d="M89.503,24.171c0.029,0,0.055,0.006,0.078,0.016s0.045,0.023,0.062,0.041s0.031,0.038,0.042,0.062
		c0.011,0.023,0.017,0.047,0.017,0.074c0,0.026-0.006,0.051-0.017,0.074s-0.024,0.044-0.042,0.062
		c-0.018,0.018-0.039,0.031-0.062,0.041s-0.049,0.016-0.078,0.016c-0.026,0-0.053-0.006-0.077-0.016s-0.046-0.023-0.062-0.041
		c-0.02-0.019-0.033-0.039-0.043-0.062c-0.011-0.023-0.017-0.048-0.017-0.074c0-0.027,0.006-0.052,0.017-0.074
		c0.01-0.023,0.023-0.045,0.043-0.062c0.018-0.018,0.037-0.031,0.062-0.041S89.477,24.171,89.503,24.171 M89.503,24.503
		c0.021,0,0.037-0.004,0.056-0.012c0.019-0.007,0.03-0.018,0.044-0.029s0.021-0.026,0.03-0.045c0.006-0.017,0.01-0.033,0.01-0.054
		s-0.004-0.036-0.01-0.055c-0.009-0.017-0.019-0.032-0.03-0.044c-0.014-0.014-0.025-0.021-0.044-0.03
		c-0.019-0.007-0.035-0.01-0.056-0.01c-0.02,0-0.036,0.003-0.055,0.01c-0.017,0.009-0.031,0.019-0.045,0.03
		c-0.012,0.012-0.021,0.027-0.029,0.044c-0.006,0.019-0.01,0.034-0.01,0.055s0.004,0.037,0.01,0.054
		c0.009,0.019,0.019,0.033,0.029,0.045c0.014,0.013,0.028,0.022,0.045,0.029C89.467,24.5,89.485,24.503,89.503,24.503
		 M89.516,24.278c0.022,0,0.041,0.007,0.053,0.017c0.013,0.011,0.019,0.023,0.019,0.041c0,0.015-0.004,0.025-0.012,0.035
		c-0.01,0.008-0.021,0.016-0.039,0.018l0.055,0.062h-0.059l-0.048-0.061h-0.006v0.061h-0.047v-0.172L89.516,24.278L89.516,24.278z
		 M89.479,24.32v0.031h0.037c0.006,0,0.013-0.001,0.017-0.004c0.004-0.002,0.006-0.006,0.006-0.012s-0.002-0.01-0.006-0.013
		s-0.011-0.004-0.017-0.004L89.479,24.32L89.479,24.32z"/>
	<path fill="#E20D17" d="M75.537,13.729c0-2.263,1.059-4.276,2.705-5.582c-1.216-0.961-2.748-1.537-4.418-1.537
		c-3.932,0-7.119,3.188-7.119,7.119c0,3.933,3.188,7.12,7.119,7.12c1.67,0,3.202-0.576,4.418-1.537
		C76.595,18.007,75.537,15.992,75.537,13.729"/>
	<path fill="#EA610A" d="M75.537,13.729c0,2.265,1.059,4.278,2.705,5.583c1.645-1.305,2.701-3.318,2.701-5.583
		c0-2.263-1.058-4.276-2.701-5.582C76.595,9.451,75.537,11.466,75.537,13.729"/>
	<path fill="#F59E00" d="M89.292,17.58v-0.209h-0.084v-0.058h0.23v0.058h-0.084v0.209H89.292z M89.74,17.58v-0.185l-0.061,0.159
		h-0.066l-0.06-0.159v0.185h-0.062v-0.267h0.088l0.065,0.171l0.065-0.171h0.09v0.267H89.74z"/>
	<path fill="#F59E00" d="M82.656,6.609c-1.668,0-3.201,0.576-4.414,1.537c1.645,1.305,2.701,3.318,2.701,5.582
		s-1.058,4.277-2.701,5.583c1.213,0.961,2.746,1.537,4.414,1.537c3.932,0,7.119-3.188,7.119-7.12
		C89.776,9.796,86.587,6.609,82.656,6.609"/>
</g>
<g>
	<path fill="#0023A0" d="M35.089,8.989c-3.263,0-5.556,1.735-5.576,4.217c-0.021,1.838,1.64,2.862,2.888,3.474
		c1.288,0.625,1.718,1.026,1.714,1.585c-0.013,0.855-1.031,1.246-1.977,1.246c-1.319,0-2.022-0.192-3.103-0.668l-0.429-0.203
		l-0.461,2.857c0.772,0.356,2.196,0.664,3.678,0.682c3.463,0,5.716-1.715,5.743-4.363c0.014-1.457-0.868-2.561-2.773-3.473
		c-1.15-0.592-1.861-0.983-1.85-1.584c0-0.53,0.596-1.1,1.89-1.1c1.08-0.018,1.857,0.23,2.469,0.491l0.294,0.147l0.449-2.771
		C37.395,9.271,36.366,8.991,35.089,8.989L35.089,8.989z M24.845,9.213l-2.064,12.774h3.297l2.065-12.776L24.845,9.213L24.845,9.213
		z M20.014,9.226l-3.229,8.707l-0.344-1.771c-0.804-2.17-2.545-4.445-4.573-5.367l2.954,11.182l3.492-0.002l5.193-12.749H20.014
		L20.014,9.226z M43.958,9.226c-0.791,0-1.381,0.226-1.73,1.062l-4.897,11.707h3.465c0,0,0.566-1.576,0.693-1.922
		c0.379,0,3.744,0.008,4.225,0.008c0.102,0.445,0.4,1.914,0.4,1.914h3.063L46.507,9.226H43.958L43.958,9.226z M44.191,12.67
		l0.221,1.102c0,0,0.634,3.049,0.766,3.688h-2.738c0.274-0.732,1.314-3.57,1.314-3.57C43.734,13.922,44.025,13.149,44.191,12.67
		L44.191,12.67z"/>
	<path fill="#FFAB00" d="M13.79,9.217H8.469L8.438,9.439c4.137,1.058,6.866,3.656,8.002,6.728l-1.157-5.871
		C15.086,9.487,14.507,9.247,13.79,9.217"/>
</g>
<g>
	<g>
		<g>
			<g>
				<g>
					<g>
						<g>
							
								<radialGradient id="SVGID_2_" cx="263.9966" cy="-127.606" r="20.9245" gradientTransform="matrix(1 0 0 -1 -146 -117.833)" gradientUnits="userSpaceOnUse">
								<stop  offset="0" style="stop-color:#97D5F6"/>
								<stop  offset="0.0483" style="stop-color:#91D3F5"/>
								<stop  offset="0.1127" style="stop-color:#80CDF3"/>
								<stop  offset="0.1861" style="stop-color:#64C4EF"/>
								<stop  offset="0.2661" style="stop-color:#3EB7EA"/>
								<stop  offset="0.3508" style="stop-color:#0DA7E3"/>
								<stop  offset="0.3708" style="stop-color:#00A3E1"/>
								<stop  offset="0.4422" style="stop-color:#0099D9"/>
								<stop  offset="0.6173" style="stop-color:#0087CA"/>
								<stop  offset="0.7999" style="stop-color:#007CC1"/>
								<stop  offset="1" style="stop-color:#0078BE"/>
							</radialGradient>
							<path id="SVGID_1_" fill="url(#SVGID_2_)" d="M132.6,6.733h-17.552v17.613H132.6v-5.812c0.07-0.1,0.104-0.23,0.104-0.387
								c0-0.182-0.034-0.293-0.104-0.387V6.733z"/>
						</g>
					</g>
				</g>
			</g>
		</g>
		<g>
			<path fill="#FFFFFF" d="M115.049,15.651h0.844l0.189-0.46h0.426l0.189,0.46h1.658V15.3l0.148,0.353h0.859l0.146-0.356v0.355
				h4.122l-0.002-0.752h0.08c0.056,0,0.071,0.007,0.071,0.1v0.652h2.132v-0.176c0.172,0.093,0.44,0.176,0.791,0.176h0.897l0.19-0.46
				h0.427l0.188,0.46h1.729v-0.438l0.262,0.438h1.385v-2.879h-1.37v0.341l-0.191-0.341h-1.405v0.341l-0.177-0.341h-1.899
				c-0.317,0-0.598,0.044-0.823,0.168v-0.168h-1.31v0.168c-0.146-0.128-0.342-0.168-0.559-0.168h-4.789l-0.322,0.742l-0.328-0.742
				H117.1v0.341l-0.168-0.341h-1.285l-0.599,1.367L115.049,15.651L115.049,15.651z M131.343,15.245h-0.698l-0.936-1.549l0.001,1.549
				h-1.005l-0.191-0.462h-1.025l-0.186,0.462h-0.578c-0.24,0-0.543-0.055-0.715-0.229c-0.175-0.178-0.264-0.413-0.264-0.789
				c0-0.307,0.055-0.585,0.266-0.807c0.16-0.166,0.409-0.242,0.749-0.242h0.478v0.443h-0.467c-0.18,0-0.283,0.026-0.381,0.122
				c-0.082,0.087-0.142,0.251-0.142,0.468c0,0.223,0.043,0.381,0.137,0.484c0.074,0.081,0.214,0.105,0.343,0.105h0.223l0.695-1.623
				h0.738l0.835,1.951v-1.949h0.753l0.866,1.438v-1.438h0.504V15.245z M125.505,15.245h-0.504v-2.064h0.504V15.245z M124.715,13.737
				c0,0.327-0.22,0.499-0.347,0.551c0.106,0.041,0.198,0.111,0.241,0.174c0.069,0.101,0.084,0.194,0.084,0.377v0.406h-0.498
				l-0.002-0.261c0-0.123,0.013-0.304-0.08-0.399c-0.07-0.074-0.18-0.09-0.357-0.09h-0.529v0.75h-0.492v-2.064h1.135
				c0.251,0,0.438,0.009,0.597,0.101C124.623,13.372,124.715,13.507,124.715,13.737z M122.391,15.245h-1.647v-2.064h1.647v0.432
				h-1.154v0.371h1.125v0.424l-1.125-0.002v0.412h1.154V15.245z M120.376,15.245h-0.506l-0.002-1.615l-0.716,1.615h-0.433
				l-0.719-1.619v1.619h-1.004l-0.188-0.462h-1.027l-0.189,0.462h-0.535l0.881-2.064h0.733l0.839,1.955v-1.955h0.807l0.646,1.4
				l0.595-1.4h0.82L120.376,15.245L120.376,15.245z M128.345,14.354l-0.342-0.821l-0.339,0.821H128.345z M124.069,14.028
				c-0.066,0.038-0.146,0.042-0.244,0.042h-0.6v-0.459h0.607c0.087,0,0.177,0.003,0.234,0.035c0.063,0.032,0.104,0.096,0.104,0.183
				C124.171,13.921,124.133,13.991,124.069,14.028z M116.632,14.354l-0.338-0.821l-0.336,0.821H116.632z"/>
			<path fill="#FFFFFF" d="M124.61,17.413c0,0.572-0.426,0.691-0.858,0.691h-0.615v0.691h-0.957l-0.608-0.682l-0.631,0.682h-1.953
				v-2.063h1.983l0.606,0.677l0.628-0.677h1.575C124.171,16.734,124.61,16.843,124.61,17.413z M120.69,18.366h-1.213v-0.41h1.082
				v-0.42h-1.082v-0.375h1.235l0.539,0.6L120.69,18.366z M122.645,18.61l-0.758-0.842l0.758-0.812V18.61z M123.774,17.686h-0.639
				v-0.525h0.645c0.179,0,0.302,0.072,0.302,0.252S123.964,17.686,123.774,17.686z M127.102,16.734h1.646v0.427h-1.155v0.375h1.127
				v0.422h-1.127v0.41l1.155,0.002v0.428h-1.646V16.734z M126.479,17.838c0.108,0.039,0.198,0.111,0.24,0.174
				c0.07,0.102,0.081,0.193,0.082,0.377v0.408h-0.494v-0.26c0-0.123,0.012-0.307-0.08-0.402c-0.072-0.074-0.182-0.092-0.361-0.092
				h-0.527v0.754h-0.494v-2.063h1.139c0.25,0,0.433,0.012,0.594,0.1c0.154,0.092,0.253,0.223,0.253,0.456
				C126.829,17.618,126.608,17.786,126.479,17.838z M126.18,17.583c-0.064,0.037-0.146,0.041-0.242,0.041h-0.601v-0.463h0.608
				c0.086,0,0.176,0.002,0.233,0.035c0.063,0.035,0.103,0.098,0.103,0.188C126.282,17.471,126.245,17.542,126.18,17.583z
				 M130.632,17.708c0.099,0.102,0.147,0.227,0.147,0.439c0,0.443-0.277,0.65-0.774,0.65h-0.961v-0.441h0.957
				c0.095,0,0.16-0.014,0.202-0.053c0.033-0.029,0.058-0.076,0.058-0.135c0-0.061-0.024-0.107-0.062-0.137
				c-0.036-0.031-0.088-0.045-0.174-0.047c-0.461-0.016-1.039,0.016-1.039-0.639c0-0.298,0.188-0.614,0.705-0.614h0.988v0.438
				h-0.904c-0.09,0-0.148,0.004-0.199,0.037c-0.053,0.033-0.072,0.084-0.072,0.15c0,0.076,0.046,0.131,0.107,0.152
				c0.052,0.02,0.106,0.023,0.19,0.023l0.267,0.006C130.338,17.549,130.52,17.596,130.632,17.708z M132.6,18.534
				c-0.121,0.176-0.354,0.264-0.67,0.264h-0.953v-0.441h0.949c0.094,0,0.159-0.014,0.199-0.053c0.033-0.029,0.061-0.076,0.061-0.135
				c0-0.061-0.025-0.107-0.062-0.137c-0.037-0.031-0.089-0.045-0.175-0.047c-0.463-0.016-1.041,0.016-1.041-0.639
				c0-0.298,0.191-0.614,0.707-0.614h0.984v-0.41h-0.914c-0.275,0-0.477,0.066-0.617,0.17v-0.17h-1.352
				c-0.215,0-0.468,0.055-0.589,0.17l0.001-0.17h-2.413v0.17c-0.19-0.139-0.515-0.17-0.665-0.17h-1.59v0.17
				c-0.152-0.146-0.488-0.17-0.695-0.17h-1.779l-0.407,0.441l-0.382-0.441h-2.659v2.882h2.608l0.42-0.449l0.396,0.449h1.605v-0.678
				h0.16c0.211,0.004,0.465-0.004,0.687-0.102v0.777h1.327V18.45h0.062c0.082,0,0.09,0.006,0.09,0.086v0.666h4.03
				c0.255,0,0.522-0.064,0.671-0.184v0.184h1.278c0.267,0,0.524-0.037,0.724-0.133v-0.535H132.6z M132.6,17.172h-0.9
				c-0.09,0-0.148,0.004-0.197,0.037c-0.053,0.033-0.073,0.084-0.073,0.148c0,0.078,0.044,0.131,0.109,0.152
				c0.051,0.02,0.106,0.023,0.19,0.025l0.266,0.006c0.27,0.008,0.449,0.053,0.561,0.166c0.02,0.016,0.032,0.035,0.047,0.051v-0.586
				H132.6z"/>
		</g>
	</g>
	<g>
		<g>
			<g>
				<path fill="#0078BE" d="M113.926,23.985h-0.154c-0.02-0.062-0.021-0.178-0.021-0.205c0-0.059-0.01-0.115-0.114-0.115h-0.228
					l0.002,0.32h-0.137v-0.779h0.361c0.125,0,0.262,0.045,0.262,0.217c0,0.098-0.041,0.146-0.084,0.176
					c0.037,0.021,0.065,0.055,0.07,0.143l0.006,0.135c0.002,0.039,0.006,0.047,0.037,0.064V23.985z M113.758,23.432
					c0-0.098-0.066-0.105-0.115-0.105h-0.234v0.217h0.217C113.696,23.543,113.758,23.526,113.758,23.432z M114.399,23.602
					c0-0.461-0.375-0.83-0.836-0.83c-0.463,0-0.836,0.369-0.836,0.83c0,0.463,0.373,0.832,0.836,0.832
					C114.024,24.434,114.399,24.065,114.399,23.602z M114.272,23.602c0,0.393-0.302,0.711-0.709,0.711
					c-0.408,0-0.709-0.318-0.709-0.711s0.299-0.709,0.709-0.709S114.272,23.209,114.272,23.602z"/>
			</g>
		</g>
	</g>
	<g>
		<path fill="#00A3E1" d="M124.715,13.737c0,0.328-0.22,0.499-0.347,0.551c0.108,0.041,0.198,0.112,0.241,0.174
			c0.07,0.102,0.084,0.194,0.084,0.377v0.406h-0.498l-0.002-0.26c0-0.124,0.014-0.305-0.078-0.4c-0.072-0.074-0.182-0.09-0.359-0.09
			h-0.529v0.75h-0.492v-2.064h1.136c0.25,0,0.438,0.009,0.597,0.101C124.623,13.372,124.715,13.507,124.715,13.737z"/>
		<polygon fill="#11ADE5" points="122.391,15.245 120.744,15.245 120.744,13.181 122.391,13.181 122.391,13.611 121.237,13.611 
			121.237,13.983 122.362,13.983 122.362,14.406 121.237,14.405 121.237,14.818 122.391,14.818 		"/>
		<polygon fill="#58BAEA" points="120.376,15.245 119.871,15.245 119.869,13.63 119.153,15.245 118.721,15.245 118.002,13.628 
			118.002,15.245 117,15.245 116.809,14.784 115.782,14.784 115.592,15.245 115.055,15.245 115.938,13.181 116.671,13.181 
			117.51,15.136 117.51,13.181 118.317,13.181 118.961,14.583 119.555,13.181 120.376,13.181 		"/>
		<path fill="#FFFFFF" d="M124.069,14.028c-0.065,0.039-0.146,0.042-0.242,0.042h-0.602v-0.459h0.607
			c0.087,0,0.177,0.003,0.234,0.036c0.064,0.031,0.104,0.095,0.104,0.184C124.172,13.921,124.133,13.992,124.069,14.028z"/>
		<polygon fill="#FFFFFF" points="116.632,14.355 116.294,13.532 115.958,14.355 		"/>
	</g>
</g>
</svg>
