<?xml version="1.0" encoding="utf-8"?>
<!-- Generator: Adobe Illustrator 16.0.0, SVG Export Plug-In . SVG Version: 6.00 Build 0)  -->
<!DOCTYPE svg PUBLIC "-//W3C//DTD SVG 1.1//EN" "http://www.w3.org/Graphics/SVG/1.1/DTD/svg11.dtd">
<svg version="1.1" id="Capa_1" xmlns="http://www.w3.org/2000/svg" xmlns:xlink="http://www.w3.org/1999/xlink" x="0px" y="0px"
	 width="145.333px" height="31.167px" viewBox="0 0 145.333 31.167" enable-background="new 0 0 145.333 31.167"
	 xml:space="preserve">
<g>
	<g>
		<defs>
			<path id="SVGID_1_" d="M9.444,9.291c-1.665,0-3.014-1.483-3.014-3.315c0-1.831,1.348-3.314,3.014-3.314
				c0.612,0,1.177,0.204,1.651,0.547c-0.73-0.896-1.789-1.462-2.973-1.462c-2.21,0-4.003,1.972-4.003,4.404
				c0,2.432,1.793,4.401,4.003,4.401c1.54,0,2.875-0.955,3.545-2.354C11.113,8.861,10.327,9.291,9.444,9.291"/>
		</defs>
		<clipPath id="SVGID_2_">
			<use xlink:href="#SVGID_1_"  overflow="visible"/>
		</clipPath>
		<g clip-path="url(#SVGID_2_)">
			<defs>
				<rect id="SVGID_3_" x="-56.265" y="-434.778" width="402.559" height="1288.187"/>
			</defs>
			<clipPath id="SVGID_4_">
				<use xlink:href="#SVGID_3_"  overflow="visible"/>
			</clipPath>
			<rect x="-2.171" y="-4.544" clip-path="url(#SVGID_4_)" fill="#CE392B" width="20.128" height="21.386"/>
		</g>
	</g>
	<g>
		<defs>
			<rect id="SVGID_5_" x="5.823" y="5.527" width="32.176" height="23.895"/>
		</defs>
		<clipPath id="SVGID_6_">
			<use xlink:href="#SVGID_5_"  overflow="visible"/>
		</clipPath>
		<g clip-path="url(#SVGID_6_)">
			<defs>
				<rect id="SVGID_7_" x="-56.265" y="-434.778" width="402.559" height="1288.187"/>
			</defs>
			<clipPath id="SVGID_8_">
				<use xlink:href="#SVGID_7_"  overflow="visible"/>
			</clipPath>
			<g clip-path="url(#SVGID_8_)" enable-background="new    ">
				<g>
					<defs>
						<rect id="SVGID_9_" x="5.376" y="5.52" width="33.966" height="23.901"/>
					</defs>
					<clipPath id="SVGID_10_">
						<use xlink:href="#SVGID_9_"  overflow="visible"/>
					</clipPath>
					<g clip-path="url(#SVGID_10_)">
						<defs>
							<path id="SVGID_11_" d="M8.555,13.088c0,0,2.625,2.57,6.071,1.108l-0.271,0.581c0,0,1.196,0.756,1.12,2.155
								c0,0-0.114,1.587-1.738,1.812c0,0,1.352,0.908,1.235,2.572c0,0,0.09,0.645-0.757,2.013l-0.4-0.085
								c-0.188,0.065-0.348,0.038-0.507,0.008c0.314-0.522,0.619-1.104,0.891-1.746c0,0,0.233-0.832-0.424-1.739
								c0,0,0.156,1.891-1.079,2.268c0,0,1.002-2.721-0.541-3.667c0,0,2.816-0.037,2.585-1.814c0,0-0.271-1.173-1.273-1.513
								l-0.733,0.604c0,0,0.58,0.417,0.463,0.947c0-0.001,0.154,0.869-1.699,0.869l-0.695,0.604l-0.463-0.832
								c0,0-1.734-0.074-1.35-1.397c0,0,0.27-0.455,0.542-0.644l-0.619-0.869c0,0-1.926,0.945-1.582,2.117
								c0,0,0.386,1.513,2.507,1.701c0,0-3.163,0.831-1.697,3.552c0,0-1.389-0.225-0.963-2.721c0,0-1.159,0.453-0.619,1.626
								c0,0,0.502,1.166,1.327,2.574c-0.071,0.009-0.141,0.021-0.207,0.034c0,0-0.229,0.069-0.539,0.11
								c-0.49-0.834-0.94-1.764-1.274-2.758c0,0-0.464-1.775,1.62-2.682c0,0-1.428-1.324-0.696-2.609c0,0,0.541-1.021,1.66-1.172
								L8.555,13.088z M13.618,24.198c-0.67,0.889-1.67,1.991-3.159,3.32c0,0-1.44-1.31-2.8-3.372
								c0.265-0.002,0.541-0.005,0.825-0.007c0.57,0.877,1.242,1.767,1.975,2.473c0,0,1.096-0.824,2.244-2.434
								C13.011,24.185,13.317,24.192,13.618,24.198z M7.874,16.367c0.037,0.793,1.118,0.831,1.118,0.831
								c-1.081-0.681-0.422-1.853-0.422-1.853C7.796,15.573,7.874,16.367,7.874,16.367z M13.699,15.874c0,0,0.5,1.438-0.964,1.891
								c0,0,1.081,0.151,1.504-0.871C14.239,16.893,14.395,16.063,13.699,15.874z M9.737,19.388
								c-0.092-0.005-0.163-0.061-0.249-0.073C9.457,19.31,9.235,19.321,9.23,19.36c-0.039,0.36,0.938,0.48,0.797-0.002
								C9.927,19.353,9.833,19.391,9.737,19.388z M11.627,19.539c-0.092-0.003-0.162-0.061-0.247-0.073
								c-0.031-0.003-0.255,0.005-0.26,0.045c-0.039,0.362,0.936,0.481,0.797-0.003C11.818,19.503,11.726,19.541,11.627,19.539z
								 M10.447,20.978c0.149,0.017,0.323,0.105,0.3-0.132c-0.017-0.21-0.283-0.298-0.461-0.286
								c-0.134,0.011-0.497,0.112-0.363,0.318C10.009,21.015,10.312,20.96,10.447,20.978z M8.838,21.521
								c0.083,0.139,0.586,0.311,0.676,0.1C9.687,21.218,8.568,21.068,8.838,21.521z M12.249,21.371
								c-0.057-0.061-0.274,0.002-0.343,0.004c-0.172,0.01-0.712-0.059-0.637,0.242c0.066,0.252,0.749,0.243,0.906,0.1
								C12.227,21.669,12.311,21.441,12.249,21.371z M10.035,14.853l1.042,1.929l1.311-1.551
								C12.388,15.231,11.384,15.534,10.035,14.853z M9.416,16.252c0.04,0.454,0.695,0.227,0.695,0.227L9.84,15.836
								C9.416,15.836,9.416,16.252,9.416,16.252z M12.331,16.168l-0.379,0.586c0,0,0.604,0.337,0.723-0.104
								C12.675,16.65,12.747,16.241,12.331,16.168z M35.37,14.097c1.12,0.15,1.658,1.172,1.658,1.172
								c0.735,1.285-0.694,2.609-0.694,2.609c2.083,0.906,1.622,2.682,1.622,2.682c-0.346,1.026-0.815,1.981-1.323,2.837
								c-0.251-0.051-0.207-0.114-0.207-0.114c-0.167-0.033-0.359-0.058-0.538-0.032c0.852-1.442,1.372-2.651,1.372-2.651
								c0.54-1.173-0.617-1.626-0.617-1.626c0.424,2.496-0.965,2.721-0.965,2.721c1.467-2.721-1.698-3.552-1.698-3.552
								c2.121-0.188,2.509-1.701,2.509-1.701c0.345-1.172-1.583-2.117-1.583-2.117l-0.616,0.869
								c0.267,0.188,0.539,0.644,0.539,0.644c0.386,1.323-1.351,1.397-1.351,1.397l-0.463,0.832l-0.694-0.604
								c-1.854,0-1.699-0.869-1.699-0.869c-0.114-0.53,0.463-0.947,0.463-0.947l-0.733-0.604c-1.001,0.34-1.271,1.513-1.271,1.513
								c-0.233,1.776,2.586,1.814,2.586,1.814c-1.544,0.946-0.541,3.667-0.541,3.667c-1.237-0.377-1.081-2.268-1.081-2.268
								c-0.655,0.907-0.423,1.739-0.423,1.739c0.295,0.695,0.628,1.322,0.971,1.879c-0.14,0.049-0.276,0.11-0.426,0.158
								c-0.119,0.038-0.242,0.066-0.368,0.085c-1.053-1.574-0.951-2.312-0.951-2.312c-0.116-1.664,1.235-2.572,1.235-2.572
								c-1.619-0.226-1.733-1.812-1.733-1.812c-0.079-1.399,1.116-2.155,1.116-2.155l-0.271-0.581
								c3.449,1.462,6.073-1.108,6.073-1.108L35.37,14.097z M36.191,24.106c-1.368,2.085-2.828,3.412-2.828,3.412
								c-1.473-1.316-2.467-2.411-3.138-3.295c0.52,0.003,0.863,0.007,0.863,0.007c0.02,0.001,0.043,0.001,0.068,0.002
								c1.135,1.574,2.206,2.38,2.206,2.38c0.723-0.696,1.386-1.572,1.952-2.437C35.557,24.15,35.857,24.126,36.191,24.106z
								 M35.253,15.345c0,0,0.657,1.172-0.423,1.853c0.001,0,1.08-0.038,1.118-0.831C35.948,16.367,36.025,15.573,35.253,15.345z
								 M29.582,16.893c0.426,1.022,1.504,0.871,1.504,0.871c-1.464-0.453-0.963-1.891-0.963-1.891
								C29.428,16.063,29.582,16.893,29.582,16.893z M33.794,19.358c-0.141,0.482,0.836,0.362,0.799,0.002
								c-0.005-0.039-0.229-0.05-0.259-0.045c-0.085,0.013-0.157,0.069-0.246,0.073C33.988,19.391,33.896,19.353,33.794,19.358z
								 M31.905,19.507c-0.14,0.484,0.835,0.365,0.795,0.003c-0.003-0.04-0.227-0.048-0.256-0.045
								c-0.087,0.013-0.157,0.07-0.248,0.073C32.097,19.541,32.005,19.503,31.905,19.507z M33.9,20.878
								c0.134-0.206-0.23-0.308-0.363-0.318c-0.181-0.012-0.444,0.076-0.463,0.286c-0.023,0.237,0.153,0.148,0.3,0.132
								C33.511,20.96,33.812,21.015,33.9,20.878z M34.307,21.621c0.091,0.211,0.594,0.039,0.678-0.1
								C35.256,21.068,34.135,21.218,34.307,21.621z M31.646,21.716c0.159,0.144,0.841,0.152,0.907-0.1
								c0.075-0.301-0.467-0.232-0.637-0.242c-0.067-0.004-0.289-0.064-0.343-0.002C31.513,21.441,31.596,21.669,31.646,21.716z
								 M31.435,15.231l1.311,1.551l1.043-1.929C32.439,15.534,31.435,15.231,31.435,15.231z M33.981,15.836l-0.271,0.643
								c0,0,0.659,0.228,0.695-0.227C34.406,16.252,34.406,15.836,33.981,15.836z M31.149,16.65
								c0.119,0.441,0.723,0.104,0.723,0.104l-0.38-0.586C31.074,16.241,31.149,16.65,31.149,16.65z M16.992,5.527
								c0,0,2.316,2.672,5.709,2.622c0,0,2.779,0.05,5.299-1.665l-1.492,1.715c0,0,2.264,1.109,2.264,3.326
								c0,0-0.05,2.521-2.469,3.529c0,0,2.573,1.562,2.212,4.538c0,0-0.288,1.576-1.734,3.957c-0.23-0.043-0.449-0.122-0.609-0.304
								c-0.026-0.03-0.051-0.072-0.077-0.121c0.908-1.536,2.513-4.893,0.413-6.607c0,0,0.926,3.327-1.438,4.787
								c0,0,2.108-4.736-1.596-6.502c0,0,4.065-0.049,4.424-3.023c0-0.001,0.361-1.967-1.902-3.126l-0.874,0.958
								c0,0,0.925,1.562,0.152,2.269c0,0-0.824,1.209-2.623,0.504l-0.874,1.512l-0.669-1.361c0,0-2.572,0.606-2.47-1.965
								c0,0,0.052-0.706,0.874-1.059l-1.08-1.06c0,0-2.368,0.757-2.109,3.228c0-0.001,0.257,2.771,4.218,2.771
								c0,0-4.113,2.269-1.799,6.906c0,0-2.162-1.461-1.237-4.688c0,0-1.232,0.658-1.079,2.825c0,0-0.085,1.696,1.807,3.844
								c-0.027,0.045-0.069,0.087-0.14,0.121c-0.017,0.007-0.03,0.014-0.047,0.021c-0.171,0.062-0.371,0.083-0.551,0.136
								l-0.81-1.098c0,0-3.396-4.436,1.183-7.612c0,0-2.984-0.857-2.418-4.384c0-0.002,0.103-1.917,2.572-2.674L16.992,5.527z
								 M26.337,24.247c-1.007,1.518-2.463,3.299-4.559,5.175l-3.761-5.1c0.584,0.021,0.93,0.033,0.93,0.033
								c0.055,0.008,0.116,0.015,0.179,0.021l2.805,3.785c0,0,2.002-2.307,3.325-3.851C25.432,24.28,25.829,24.26,26.337,24.247z
								 M21.982,12.08l2.623-3.276c-2.004,0.908-4.629-0.201-4.629-0.201L21.982,12.08z M19.678,11.322
								c0.116,0.786,1.263,0.279,1.263,0.279l-0.747-1.124C19.506,10.646,19.678,11.322,19.678,11.322z M24.503,11.677
								c0.62-0.806-0.309-1.158-0.309-1.158l-0.979,1.158C23.578,12.431,24.503,11.678,24.503,11.677z M17.248,11.929
								c0.773,2.318,2.728,1.361,2.728,1.361c-3.137-0.807-1.596-3.932-1.596-3.932C16.735,9.963,17.248,11.929,17.248,11.929z
								 M25.942,9.812c0,0,0.979,3.428-2.622,3.932c0,0,2.16,0.858,3.345-1.312C26.665,12.431,27.23,10.317,25.942,9.812z
								 M20.339,16.977c-0.073-0.01-0.528-0.158-0.561-0.05c-0.188,0.626,1.563,0.826,1.322-0.051
								C20.823,16.836,20.632,17.019,20.339,16.977z M23.987,17.471c0.144-0.107,0.333-0.351,0.144-0.497
								c-0.202-0.159-0.494,0.131-0.683,0.174c-0.167,0.038-0.412-0.061-0.554,0.077c-0.125,0.121-0.11,0.224,0.064,0.305
								C23.204,17.643,23.774,17.625,23.987,17.471z M20.087,19.082c-0.115-0.113-0.467,0.037-0.649,0.034
								c-0.18-0.004-0.465-0.065-0.597,0.097c-0.052,0.062-0.043,0.291,0.009,0.355c0.092,0.11,0.371,0.127,0.652,0.077
								C19.924,19.566,20.347,19.337,20.087,19.082z M21.622,19.365c0.197,0.01,1.217-0.066,0.683-0.464
								c-0.203-0.155-0.494,0.039-0.72-0.013c-0.194-0.044-0.475-0.252-0.556,0.052C20.941,19.271,21.402,19.353,21.622,19.365z
								 M24.941,18.783c-0.173-0.186-0.531,0.077-0.75,0.055c-0.173-0.02-0.502-0.197-0.565,0.075
								c-0.075,0.324,0.352,0.301,0.571,0.301C24.331,19.213,25.278,19.141,24.941,18.783z M20.059,20.579
								c-0.277,0.421,1.297,0.762,1.173,0.076c-0.006-0.042-0.487-0.032-0.524,0.019C20.611,20.66,20.118,20.488,20.059,20.579z
								 M23.309,20.68c-0.17,0.009-0.318-0.131-0.458-0.124c-0.38,0.02-0.225,0.441-0.005,0.561
								c0.311,0.167,1.057,0.208,1.169-0.234C24.156,20.342,23.547,20.67,23.309,20.68z"/>
						</defs>
						<clipPath id="SVGID_12_">
							<use xlink:href="#SVGID_11_"  overflow="visible"/>
						</clipPath>
						<g clip-path="url(#SVGID_12_)">
							<defs>
								<rect id="SVGID_13_" x="5.376" y="5.52" width="32.708" height="23.901"/>
							</defs>
							<clipPath id="SVGID_14_">
								<use xlink:href="#SVGID_13_"  overflow="visible"/>
							</clipPath>
							<rect x="-0.467" y="-0.763" clip-path="url(#SVGID_14_)" fill="#CE392B" width="44.756" height="36.475"/>
						</g>
					</g>
				</g>
			</g>
		</g>
	</g>
	<g>
		<defs>
			<path id="SVGID_15_" d="M24.944,23.236c-0.257,0.17-0.641,0.084-0.641,0.084c-0.307-0.368-0.589-0.084-0.589-0.084
				c-0.539,0.339-0.896,0.057-0.896,0.057c-0.743-0.341-0.974,0.481-0.974,0.481c-0.101,0.88-0.49,0.88-0.49,0.88
				c-0.355,0-0.585-0.648-0.585-0.648c-0.105-0.393-0.333-0.686-0.847-0.202c-0.215,0.203-0.408-0.199-0.408-0.199
				c-0.258-0.397-0.563,0-0.563,0c-0.335,0.256-0.565,0-0.565,0c-0.872-0.454-1.819,1.038-1.819,1.038
				c-0.705,0.056-1.556-0.072-1.921-0.072c-0.691,0-1-0.312-1-0.312l-0.474-0.116c-0.33,0.132-0.569-0.061-0.876-0.031
				c-0.172,0.019-0.463,0.39-0.592-0.003c-0.244,0-0.325,0.179-0.609,0.122c-0.133-0.028-0.127-0.134-0.266-0.171
				c-0.11-0.029-0.268,0-0.384,0c-0.124,0-0.264-0.022-0.387,0c-0.106,0.018-0.235,0.138-0.307,0.128
				C9.43,24.14,9.536,23.992,9.22,24.102c-0.124,0.04-0.099,0.183-0.278,0.168c-0.168-0.012-0.104-0.193-0.222-0.225
				c-0.297-0.078-0.326,0.166-0.509,0.225c-0.285,0.095-0.187-0.039-0.461-0.159c-0.212-0.094-0.474-0.061-0.691-0.009
				c0,0-0.539,0.183-1.078,0.156l-0.128,0.001c0,0-3.072,0.337-4.021,0.025l-1.408,0.312l0.997,1.53l1.999,0.03
				c0,0-1.767,1.503-2.818,1.703l-0.255,0.198l0.769,1.362c0,0,2.511-0.567,3.562-1.645c0-0.002,1.176-1.107,1.254-1.336
				c0,0,1.896,0,5.331,0.058c0,0,6.79,0.285,8.84,0.312c0,0,4.715-0.113,7.2-0.369c0,0,8.405,0.229,11.095-0.169
				c0,0,1.538-0.057,1.921,0.056l0.257-1.503l0.026-0.113l-4.805-0.324c-0.319-0.252-0.581-0.285-0.797-0.19
				c-0.274,0.118-0.172,0.253-0.459,0.159c-0.181-0.062-0.212-0.305-0.51-0.226c-0.117,0.03-0.053,0.213-0.219,0.226
				c-0.181,0.014-0.157-0.126-0.278-0.169c-0.317-0.11-0.212,0.038-0.529,0.085c-0.074,0.011-0.203-0.111-0.307-0.13
				c-0.124-0.02-0.264,0-0.388,0c-0.117,0-0.272-0.029-0.384,0c-0.14,0.04-0.133,0.143-0.266,0.171
				c-0.283,0.061-0.365-0.121-0.61-0.117c-0.128,0.391-0.417,0.017-0.591,0.001c-0.382-0.039-0.659,0.159-1,0.281
				c-0.326,0.118-0.687,0.146-1.029,0.146c-0.702-0.002-1.422,0.154-2.111-0.032c-0.069-0.019-0.201,0.01-0.209-0.07
				C25.943,22.744,24.944,23.236,24.944,23.236 M17.43,25.091c0.279-0.155,0.11-0.437,0.333-0.678
				c0.406-0.443,0.621,0.522,0.859,0.695c0.293,0.217,0.338-0.2,0.428-0.406c0.224-0.523,0.33,0.036,0.625,0.191
				c0.381,0.198,0.394-0.596,0.715-0.381c0.239,0.16,0.153,0.685,0.377,0.864c0.28,0.225,0.726,0.191,1-0.029
				c0.283-0.231,0.24-0.919,0.597-1.04c0.271-0.091,0.389,0.279,0.609,0.359c0.335,0.127,0.431-0.242,0.61-0.467
				c0.298-0.378,0.303,0.011,0.438,0.255c0.296,0.545,0.506-0.229,0.735-0.377c0.434-0.279,0.546,0.546,0.722,0.774
				c0.252,0.324,0.655,0.358,1.009,0.396c0.644,0.067,1.289,0.081,1.94,0.083c0.342,0.002,0.703-0.025,1.029-0.145
				c0.341-0.123,0.617-0.319,1-0.282c0.174,0.017,0.462,0.391,0.591-0.002c0.245-0.005,0.327,0.179,0.61,0.119
				c0.133-0.027,0.125-0.134,0.266-0.17c0.112-0.031,0.267,0,0.384,0c0.124,0,0.264-0.021,0.388,0
				c0.104,0.02,0.233,0.14,0.307,0.129c0.317-0.047,0.212-0.197,0.529-0.088c0.121,0.045,0.097,0.185,0.278,0.171
				c0.167-0.012,0.103-0.192,0.219-0.225c0.298-0.08,0.329,0.165,0.51,0.225c0.287,0.094,0.185-0.04,0.459-0.159
				c0.216-0.093,0.478-0.062,0.695-0.012c0,0-0.167,0.271,2.009,0.185l2.153,0.113l-0.128,0.457c0,0-4.124,0.083-5.379,0.282
				c0,0-3.359,0.056-3.972,0.029c0,0-5.536-0.059-5.892,0.112c0-0.001-4.717,0.255-6.203,0.029c0,0-8.559-0.37-12.505-0.2
				c0,0-1.151,1.704-4.434,2.839l-0.282-0.428c0,0,2.793-1.049,3.332-2.041l-0.511-0.681c0,0-1.744,0.141-2.255-0.228l-0.207-0.311
				l4.561-0.088c0.54,0.03,1.078-0.155,1.078-0.155c0.217-0.052,0.479-0.083,0.691,0.011c0.274,0.119,0.176,0.253,0.461,0.159
				c0.183-0.059,0.212-0.303,0.509-0.225c0.118,0.029,0.054,0.212,0.222,0.225c0.179,0.016,0.154-0.127,0.278-0.17
				c0.315-0.108,0.209,0.039,0.528,0.087c0.072,0.009,0.201-0.112,0.307-0.129c0.124-0.02,0.263,0,0.387,0
				c0.116-0.001,0.273-0.031,0.384,0c0.139,0.036,0.133,0.143,0.266,0.171c0.284,0.058,0.365-0.122,0.609-0.122
				c0.129,0.394,0.42,0.02,0.592,0.004c0.308-0.029,0.547,0.162,0.876,0.032l0.474,0.112c0,0,0.309,0.313,1,0.313
				c0,0,1.921,0.056,2.153,0c0.188-0.07,0.404-0.091,0.586-0.167C17.4,25.104,17.414,25.098,17.43,25.091"/>
		</defs>
		<clipPath id="SVGID_16_">
			<use xlink:href="#SVGID_15_"  overflow="visible"/>
		</clipPath>
		<g clip-path="url(#SVGID_16_)">
			<defs>
				<rect id="SVGID_17_" x="-56.265" y="-434.778" width="402.559" height="1288.187"/>
			</defs>
			<clipPath id="SVGID_18_">
				<use xlink:href="#SVGID_17_"  overflow="visible"/>
			</clipPath>
			<rect x="-5.945" y="16.841" clip-path="url(#SVGID_18_)" fill="#E20714" width="52.836" height="18.87"/>
		</g>
	</g>
	<g>
		<defs>
			<rect id="SVGID_19_" x="47.046" y="10.797" width="98.767" height="15.828"/>
		</defs>
		<clipPath id="SVGID_20_">
			<use xlink:href="#SVGID_19_"  overflow="visible"/>
		</clipPath>
		<g clip-path="url(#SVGID_20_)">
			<defs>
				<rect id="SVGID_21_" x="-56.265" y="-434.778" width="402.559" height="1288.187"/>
			</defs>
			<clipPath id="SVGID_22_">
				<use xlink:href="#SVGID_21_"  overflow="visible"/>
			</clipPath>
			<g clip-path="url(#SVGID_22_)" enable-background="new    ">
				<g>
					<defs>
						<rect id="SVGID_23_" x="45.632" y="9.293" width="100.641" height="18.87"/>
					</defs>
					<clipPath id="SVGID_24_">
						<use xlink:href="#SVGID_23_"  overflow="visible"/>
					</clipPath>
					<g clip-path="url(#SVGID_24_)">
						<defs>
							<path id="SVGID_25_" d="M55.002,14.446c0,0-3.786,1.579-3.941,2.475c0,0-0.723,1.105,2.127,0.843
								c0-0.001,8.552-0.843,8.863,3.053c0,0,0.105,1.578-1.556,2.896c0,0-3.73,3.581-10.366,2.423c0,0-3.005-0.212-2.902-2.002
								c0,0,0.468-0.843,1.605,0c0,0,6.066,1.579,8.969-0.894c0,0,1.296-1.265,0.361-1.843c0,0-1.709-0.896-3.991-0.947
								c0,0-6.789,0.788-7.1-2.002c0,0-0.57-2.422,3.576-4.737c0,0,6.117-3.002,11.402-2.792c0,0,2.904-0.79,3.111,1.686
								c0-0.001-1.038,2.369-4.873,2.579c0,0-3.784,0.157-4.146-0.789C56.143,14.393,55.988,14.129,55.002,14.446z M59.667,14.024
								c0,0,1.088-0.157,0.828-0.946c0,0-1.346-0.633-2.538,0.423C57.957,13.5,57.49,14.341,59.667,14.024z M72.521,19.553
								c0,0,0.364-1.527-3.785-1c0,0-6.167,1.104-6.064,5.421c0,0,0.623,3.422,4.2,1.79c0,0,2.331-1.263,2.902-1.632
								c0,0,0.206,2.737,2.955,2.475c0,0,1.814,0.157,3.473-2.105c0-0.001,1.659-2.158,2.022-2.053c0,0,0.88-0.105,0.31,0.841
								c0,0-1.295,2.106,0.519,2.527c0,0,1.968,0.685,3.11-1.104c0,0,1.762-2.738,2.796-2.738c0,0,0.416,0.157-0.258,1.105
								c0,0-0.982,2.737,1.765,2.948c0,0,2.692,0.264,3.159-0.946c0,0,0.52-1.16-0.879-0.423c0,0-1.917,1.158-1.192-0.579
								c0,0,2.903-3.844,0.104-4.896c0,0-1.504-0.685-2.592,0.105c0,0-1.607,1.738-2.332,1.844c0,0-0.57,0.104-0.676-1.158
								c0,0-0.57-1.895-2.9-0.738c0,0-1.504,1.318-4.252,4.687c0,0-2.539,2.632-1.864,0.052c0,0,1.815-2.896-0.105-3.58
								c0,0-1.088-0.524-2.747,1.212c0,0-3.369,3.001-4.197,3.001c0,0-1.036-0.157,0.468-2.107c0,0,1.605-2.212,4.404-2.421
								C70.863,20.079,72.521,20.079,72.521,19.553z M95.432,18.604c-0.622,1.79,0.673,0.422,0.673,0.422
								c3.214-1.686,3.214,1.737,3.214,1.737c0.622,0.843,1.865-0.209,1.865-0.209c0.624-0.424,1.4-1.213,1.4-1.213
								c2.073-1.894,3.423-0.474,3.423-0.474c0.312,0.843,1.088,0.211,1.088,0.211c2.644-0.789,2.123,1.263,2.123,1.263
								c-0.776,0.213-0.361,1.105-0.361,1.105c0.312,1.106,1.919-0.631,1.919-0.631c0.932-0.262,0.467-1.58,0.467-1.58
								c0.05-1.053,1.347-0.632,1.347-0.632c0.88,0.685,2.125,0.157,2.125,0.157c2.071-0.104,1.865,1,1.865,1
								c0.776,0.793,0,1.686,0,1.686c-1.452,1.37-1.504,2.896-1.504,2.896c0.105,1.738,3.577-2.369,3.577-2.369
								c2.645-3.791,4.976-3.213,4.976-3.213c2.126-0.051,1.556,3.213,1.556,3.213l2.644-2.476c0.932-1.315,2.28-0.895,2.28-0.895
								c2.904,0.737,0.728,4.37,0.728,4.37c-0.57,1.476,0.828,0.895,0.828,0.895c0.985-1.42,3.316-3.633,3.316-3.633
								c3.732-3.473,5.6-2.63,5.6-2.63c1.452,0.313,0.204,1.473,0.204,1.473c-0.723,1.053-0.204,2.948-0.204,2.948l5.233,0.053
								l-1.555,1.843l-4.406-0.055c-0.725,1.581-2.798,1.581-2.798,1.581c-2.538-0.264-2.747-2.369-2.747-2.369
								c-0.415-0.054-1.867,1.579-1.867,1.579c-0.985,1.315-3.888,0.315-3.888,0.315c-1.553-0.474-0.567-3-0.567-3
								c-0.469-0.421-2.801,2.315-2.801,2.315c-1.295,1.949-2.956,1.159-2.956,1.159c-1.971-0.581-0.776-3-0.776-3
								c0.725-1.212,0.521-1.526,0.521-1.526c-1.092,0.631-3.011,3.052-3.011,3.052c-3.938,3.896-6.528,0.896-6.528,0.896
								c-1.245-1.896,1.604-4.37,1.604-4.37c-0.621-0.474-1.191,0.055-1.191,0.055c-1.762,3.263-4.976,2.947-4.976,2.947
								c-0.882,1.58-3.007,2.263-3.007,2.263c-5.491,1.475-4.197-3.053-4.197-3.053c-1.4,0.42-1.606-0.052-1.606-0.052
								c-0.105,0.367-1.089,0.524-1.089,0.524s-2.073,2.844-4.459,2.897c-2.384,0.05-3.057-1.369-2.693-3.738
								c0.361-2.369,3.472-7.004,3.472-7.004c-0.467,0.264-0.982-0.104-0.982-0.104c-0.418-0.895,2.384-2.053,2.384-2.053
								c2.229-1.001,1.501,0.473,1.501,0.473L95.432,18.604z M93.825,21.974c-0.934,2.894,0.155,3.158,0.155,3.158
								c1.037-0.054,1.867-2,1.867-2c0.261-1.051-0.885-2.369-0.885-2.369C94.292,20.604,93.825,21.974,93.825,21.974z
								 M103.983,21.553c-1.554,4.158,0.467,3.212,0.467,3.212c1.558-0.948,1.558-2.159,1.558-2.159
								c0.049-0.737-0.776-2.002-0.776-2.002C104.658,20.236,103.983,21.553,103.983,21.553z M137.675,19.87
								c0,0-1.813,0.524-1.864,2.104c0,0,0.879,0.475,1.606-0.158C137.417,21.816,137.73,20.341,137.675,19.87z"/>
						</defs>
						<clipPath id="SVGID_26_">
							<use xlink:href="#SVGID_25_"  overflow="visible"/>
						</clipPath>
						<g clip-path="url(#SVGID_26_)">
							<defs>
								<rect id="SVGID_27_" x="46.891" y="10.551" width="99.382" height="16.354"/>
							</defs>
							<clipPath id="SVGID_28_">
								<use xlink:href="#SVGID_27_"  overflow="visible"/>
							</clipPath>
							<rect x="40.756" y="4.507" clip-path="url(#SVGID_28_)" fill="#CE392B" width="111.347" height="28.408"/>
						</g>
					</g>
				</g>
			</g>
		</g>
	</g>
</g>
</svg>